(((5:0.255012,(6:0.218331,3:0.218331):0.036681):1.139306,(7:0.567897,(2:0.320096,4:0.320096):0.247801):0.826421):0.466933,1:1.861251);
(((6:0.155733,(5:0.106487,(1:0.021087,2:0.021087):0.085400):0.049246):0.484747,7:0.640480):0.173021,(3:0.392833,4:0.392833):0.420668);
(((1:0.954781,7:0.954781):0.736464,(2:0.768147,5:0.768147):0.923098):1.162457,(3:0.265420,(6:0.209900,4:0.209900):0.055520):2.588282);
((7:0.906353,(4:0.238629,(3:0.230615,5:0.230615):0.008015):0.667724):1.029305,((6:0.110858,2:0.110858):1.242646,1:1.353504):0.582154);
(1:2.281377,((7:0.846150,3:0.846150):0.858875,((5:0.346322,(2:0.302984,4:0.302984):0.043338):0.232100,6:0.578422):1.126603):0.576352);
(5:1.013325,((2:0.674742,((7:0.034732,4:0.034732):0.548164,3:0.582895):0.091847):0.069227,(6:0.389591,1:0.389591):0.354378):0.269357);
(((1:0.253739,3:0.253739):0.277150,(5:0.350377,4:0.350377):0.180512):0.067037,(6:0.437469,(2:0.015556,7:0.015556):0.421913):0.160457);
(5:1.042407,((4:0.526338,(3:0.259150,(1:0.204246,(6:0.195253,2:0.195253):0.008993):0.054904):0.267188):0.475337,7:1.001676):0.040731);
(((6:1.898639,((1:0.088403,2:0.088403):0.280526,(5:0.323215,4:0.323215):0.045714):1.529711):0.025026,3:1.923665):0.450568,7:2.374234);
((((6:0.503879,4:0.503879):0.090707,(5:0.482887,7:0.482887):0.111700):0.700191,(2:0.348879,3:0.348879):0.945898):0.688772,1:1.983550);
(3:1.907098,((1:1.209051,((5:0.522074,(6:0.295101,7:0.295101):0.226973):0.137536,4:0.659610):0.549441):0.095026,2:1.304077):0.603021);
((4:0.186518,7:0.186518):0.710003,(6:0.611486,(((3:0.011008,2:0.011008):0.241223,5:0.252231):0.159420,1:0.411651):0.199836):0.285034);
(((5:0.317923,2:0.317923):0.633005,4:0.950928):0.102052,((1:0.130357,3:0.130357):0.447016,(7:0.566943,6:0.566943):0.010431):0.475606);
((3:1.195778,(1:1.156456,((5:0.056865,6:0.056865):0.422871,2:0.479736):0.676720):0.039323):0.449731,(4:0.631781,7:0.631781):1.013728);
((7:1.269885,1:1.269885):1.432802,(((5:0.213582,3:0.213582):0.042298,(2:0.214179,6:0.214179):0.041701):0.628112,4:0.883991):1.818695);
((1:1.289194,6:1.289194):0.878529,((4:0.617654,(7:0.225459,2:0.225459):0.392195):0.899918,(5:0.789352,3:0.789352):0.728220):0.650151);
(((6:0.129583,7:0.129583):0.728358,4:0.857942):0.203963,((1:0.096872,5:0.096872):0.156753,(2:0.155436,3:0.155436):0.098189):0.808279);
(((3:0.134107,5:0.134107):0.345135,((2:0.146659,1:0.146659):0.229745,(6:0.237044,4:0.237044):0.139360):0.102838):0.085556,7:0.564797);
(1:2.011221,(6:1.266756,(((7:0.104174,5:0.104174):0.148608,(2:0.196753,4:0.196753):0.056029):0.254480,3:0.507262):0.759494):0.744465);
((3:0.286636,1:0.286636):0.317567,(6:0.577761,(2:0.458029,((5:0.386004,7:0.386004):0.047368,4:0.433372):0.024657):0.119732):0.026441);
